mainproject/Waveforms/PWM_Gen.vcd
$date
	Thu Oct 12 16:09:39 2023
$end
$version
	Icarus Verilog
$end
$timescale
	1us
$end
$scope module testbench $end
$var wire 1 ! MotorB $end
$var wire 1 " MotorA $end
$var reg 2 # DriveA [1:0] $end
$var reg 2 $ DriveB [1:0] $end
$var reg 1 % MCLK $end
$scope module UUT $end
$var wire 1 % CLK $end
$var wire 2 & DriveA [1:0] $end
$var wire 2 ' DriveB [1:0] $end
$var wire 7 ( TCR [6:0] $end
$var wire 1 ! MotorB $end
$var wire 1 " MotorA $end
$var wire 1 ) E $end
$var wire 7 * CCRB [6:0] $end
$var wire 7 + CCRA [6:0] $end
$scope module CCA $end
$var wire 2 , Drivex [1:0] $end
$var wire 1 ) E $end
$var reg 7 - CCRx [6:0] $end
$upscope $end
$scope module CCB $end
$var wire 2 . Drivex [1:0] $end
$var wire 1 ) E $end
$var reg 7 / CCRx [6:0] $end
$upscope $end
$scope module OutA $end
$var wire 7 0 CCRx [6:0] $end
$var wire 1 % CLK $end
$var wire 7 1 TCR [6:0] $end
$var wire 1 ) E $end
$var reg 1 " Motorx $end
$var reg 1 2 R $end
$upscope $end
$scope module OutB $end
$var wire 7 3 CCRx [6:0] $end
$var wire 1 % CLK $end
$var wire 7 4 TCR [6:0] $end
$var wire 1 ) E $end
$var reg 1 ! Motorx $end
$var reg 1 5 R $end
$upscope $end
$scope module TC $end
$var wire 1 % CLK $end
$var reg 1 ) E $end
$var reg 7 6 TCR [6:0] $end
$upscope $end
$upscope $end
$upscope $end
$enddefinitions $end
$comment Show the parameter values. $end
$dumpall
$end
#0
$dumpvars
b1111100 6
05
b1111100 4
b0 3
02
b1111100 1
b0 0
b0 /
b10 .
b0 -
b1 ,
b0 +
b0 *
0)
b1111100 (
b10 '
b1 &
0%
b10 $
b1 #
0"
0!
$end
#10
1%
#20
b1111101 (
b1111101 1
b1111101 4
b1111101 6
0%
#30
1%
#40
b1111110 (
b1111110 1
b1111110 4
b1111110 6
0%
#50
1%
#60
b1111111 (
b1111111 1
b1111111 4
b1111111 6
0%
#70
1%
#80
b1000000 +
b1000000 -
b1000000 0
b1100000 *
b1100000 /
b1100000 3
1)
b0 (
b0 1
b0 4
b0 6
0%
#90
1%
#100
1!
1"
0)
b1 (
b1 1
b1 4
b1 6
0%
#110
1%
#120
b10 (
b10 1
b10 4
b10 6
0%
#130
1%
#140
b11 (
b11 1
b11 4
b11 6
0%
#150
1%
#160
b100 (
b100 1
b100 4
b100 6
0%
#170
1%
#180
b101 (
b101 1
b101 4
b101 6
0%
#190
1%
#200
b110 (
b110 1
b110 4
b110 6
0%
#210
1%
#220
b111 (
b111 1
b111 4
b111 6
0%
#230
1%
#240
b1000 (
b1000 1
b1000 4
b1000 6
0%
#250
1%
#260
b1001 (
b1001 1
b1001 4
b1001 6
0%
#270
1%
#280
b1010 (
b1010 1
b1010 4
b1010 6
0%
#290
1%
#300
b1011 (
b1011 1
b1011 4
b1011 6
0%
#310
1%
#320
b1100 (
b1100 1
b1100 4
b1100 6
0%
#330
1%
#340
b1101 (
b1101 1
b1101 4
b1101 6
0%
#350
1%
#360
b1110 (
b1110 1
b1110 4
b1110 6
0%
#370
1%
#380
b1111 (
b1111 1
b1111 4
b1111 6
0%
#390
1%
#400
b10000 (
b10000 1
b10000 4
b10000 6
0%
#410
1%
#420
b10001 (
b10001 1
b10001 4
b10001 6
0%
#430
1%
#440
b10010 (
b10010 1
b10010 4
b10010 6
0%
#450
1%
#460
b10011 (
b10011 1
b10011 4
b10011 6
0%
#470
1%
#480
b10100 (
b10100 1
b10100 4
b10100 6
0%
#490
1%
#500
b10101 (
b10101 1
b10101 4
b10101 6
0%
#510
1%
#520
b10110 (
b10110 1
b10110 4
b10110 6
0%
#530
1%
#540
b10111 (
b10111 1
b10111 4
b10111 6
0%
#550
1%
#560
b11000 (
b11000 1
b11000 4
b11000 6
0%
#570
1%
#580
b11001 (
b11001 1
b11001 4
b11001 6
0%
#590
1%
#600
b11010 (
b11010 1
b11010 4
b11010 6
0%
#610
1%
#620
b11011 (
b11011 1
b11011 4
b11011 6
0%
#630
1%
#640
b11100 (
b11100 1
b11100 4
b11100 6
0%
#650
1%
#660
b11101 (
b11101 1
b11101 4
b11101 6
0%
#670
1%
#680
b11110 (
b11110 1
b11110 4
b11110 6
0%
#690
1%
#700
b11111 (
b11111 1
b11111 4
b11111 6
0%
#710
1%
#720
b100000 (
b100000 1
b100000 4
b100000 6
0%
#730
1%
#740
b100001 (
b100001 1
b100001 4
b100001 6
0%
#750
1%
#760
b100010 (
b100010 1
b100010 4
b100010 6
0%
#770
1%
#780
b100011 (
b100011 1
b100011 4
b100011 6
0%
#790
1%
#800
b100100 (
b100100 1
b100100 4
b100100 6
0%
#810
1%
#820
b100101 (
b100101 1
b100101 4
b100101 6
0%
#830
1%
#840
b100110 (
b100110 1
b100110 4
b100110 6
0%
#850
1%
#860
b100111 (
b100111 1
b100111 4
b100111 6
0%
#870
1%
#880
b101000 (
b101000 1
b101000 4
b101000 6
0%
#890
1%
#900
b101001 (
b101001 1
b101001 4
b101001 6
0%
#910
1%
#920
b101010 (
b101010 1
b101010 4
b101010 6
0%
#930
1%
#940
b101011 (
b101011 1
b101011 4
b101011 6
0%
#950
1%
#960
b101100 (
b101100 1
b101100 4
b101100 6
0%
#970
1%
#980
b101101 (
b101101 1
b101101 4
b101101 6
0%
#990
1%
#1000
b101110 (
b101110 1
b101110 4
b101110 6
0%
#1010
1%
#1020
b101111 (
b101111 1
b101111 4
b101111 6
0%
#1030
1%
#1040
b110000 (
b110000 1
b110000 4
b110000 6
0%
#1050
1%
#1060
b110001 (
b110001 1
b110001 4
b110001 6
0%
#1070
1%
#1080
b110010 (
b110010 1
b110010 4
b110010 6
0%
#1090
1%
#1100
b110011 (
b110011 1
b110011 4
b110011 6
0%
#1110
1%
#1120
b110100 (
b110100 1
b110100 4
b110100 6
0%
#1130
1%
#1140
b110101 (
b110101 1
b110101 4
b110101 6
0%
#1150
1%
#1160
b110110 (
b110110 1
b110110 4
b110110 6
0%
#1170
1%
#1180
b110111 (
b110111 1
b110111 4
b110111 6
0%
#1190
1%
#1200
b111000 (
b111000 1
b111000 4
b111000 6
0%
#1210
1%
#1220
b111001 (
b111001 1
b111001 4
b111001 6
0%
#1230
1%
#1240
b111010 (
b111010 1
b111010 4
b111010 6
0%
#1250
1%
#1260
b111011 (
b111011 1
b111011 4
b111011 6
0%
#1270
1%
#1280
b111100 (
b111100 1
b111100 4
b111100 6
0%
#1290
1%
#1300
b111101 (
b111101 1
b111101 4
b111101 6
0%
#1310
1%
#1320
b111110 (
b111110 1
b111110 4
b111110 6
0%
#1330
1%
#1340
b111111 (
b111111 1
b111111 4
b111111 6
0%
#1350
1%
#1360
b1000000 (
b1000000 1
b1000000 4
b1000000 6
0%
#1370
12
1%
#1380
0"
b1000001 (
b1000001 1
b1000001 4
b1000001 6
0%
#1390
02
1%
#1400
b1000010 (
b1000010 1
b1000010 4
b1000010 6
0%
#1410
1%
#1420
b1000011 (
b1000011 1
b1000011 4
b1000011 6
0%
#1430
1%
#1440
b1000100 (
b1000100 1
b1000100 4
b1000100 6
0%
#1450
1%
#1460
b1000101 (
b1000101 1
b1000101 4
b1000101 6
0%
#1470
1%
#1480
b1000110 (
b1000110 1
b1000110 4
b1000110 6
0%
#1490
1%
#1500
b1000111 (
b1000111 1
b1000111 4
b1000111 6
0%
#1510
1%
#1520
b1001000 (
b1001000 1
b1001000 4
b1001000 6
0%
#1530
1%
#1540
b1001001 (
b1001001 1
b1001001 4
b1001001 6
0%
#1550
1%
#1560
b1001010 (
b1001010 1
b1001010 4
b1001010 6
0%
#1570
1%
#1580
b1001011 (
b1001011 1
b1001011 4
b1001011 6
0%
#1590
1%
#1600
b1001100 (
b1001100 1
b1001100 4
b1001100 6
0%
#1610
1%
#1620
b1001101 (
b1001101 1
b1001101 4
b1001101 6
0%
#1630
1%
#1640
b1001110 (
b1001110 1
b1001110 4
b1001110 6
0%
#1650
1%
#1660
b1001111 (
b1001111 1
b1001111 4
b1001111 6
0%
#1670
1%
#1680
b1010000 (
b1010000 1
b1010000 4
b1010000 6
0%
#1690
1%
#1700
b1010001 (
b1010001 1
b1010001 4
b1010001 6
0%
#1710
1%
#1720
b1010010 (
b1010010 1
b1010010 4
b1010010 6
0%
#1730
1%
#1740
b1010011 (
b1010011 1
b1010011 4
b1010011 6
0%
#1750
1%
#1760
b1010100 (
b1010100 1
b1010100 4
b1010100 6
0%
#1770
1%
#1780
b1010101 (
b1010101 1
b1010101 4
b1010101 6
0%
#1790
1%
#1800
b1010110 (
b1010110 1
b1010110 4
b1010110 6
0%
#1810
1%
#1820
b1010111 (
b1010111 1
b1010111 4
b1010111 6
0%
#1830
1%
#1840
b1011000 (
b1011000 1
b1011000 4
b1011000 6
0%
#1850
1%
#1860
b1011001 (
b1011001 1
b1011001 4
b1011001 6
0%
#1870
1%
#1880
b1011010 (
b1011010 1
b1011010 4
b1011010 6
0%
#1890
1%
#1900
b1011011 (
b1011011 1
b1011011 4
b1011011 6
0%
#1910
1%
#1920
b1011100 (
b1011100 1
b1011100 4
b1011100 6
0%
#1930
1%
#1940
b1011101 (
b1011101 1
b1011101 4
b1011101 6
0%
#1950
1%
#1960
b1011110 (
b1011110 1
b1011110 4
b1011110 6
0%
#1970
1%
#1980
b1011111 (
b1011111 1
b1011111 4
b1011111 6
0%
#1990
1%
#2000
b1100000 (
b1100000 1
b1100000 4
b1100000 6
0%
b0 $
b0 '
b0 .
b10 #
b10 &
b10 ,
#2010
15
1%
#2020
0!
b1100001 (
b1100001 1
b1100001 4
b1100001 6
0%
#2030
05
1%
#2040
b1100010 (
b1100010 1
b1100010 4
b1100010 6
0%
#2050
1%
#2060
b1100011 (
b1100011 1
b1100011 4
b1100011 6
0%
#2070
1%
#2080
b1100100 (
b1100100 1
b1100100 4
b1100100 6
0%
#2090
1%
#2100
b1100101 (
b1100101 1
b1100101 4
b1100101 6
0%
#2110
1%
#2120
b1100110 (
b1100110 1
b1100110 4
b1100110 6
0%
#2130
1%
#2140
b1100111 (
b1100111 1
b1100111 4
b1100111 6
0%
#2150
1%
#2160
b1101000 (
b1101000 1
b1101000 4
b1101000 6
0%
#2170
1%
#2180
b1101001 (
b1101001 1
b1101001 4
b1101001 6
0%
#2190
1%
#2200
b1101010 (
b1101010 1
b1101010 4
b1101010 6
0%
#2210
1%
#2220
b1101011 (
b1101011 1
b1101011 4
b1101011 6
0%
#2230
1%
#2240
b1101100 (
b1101100 1
b1101100 4
b1101100 6
0%
#2250
1%
#2260
b1101101 (
b1101101 1
b1101101 4
b1101101 6
0%
#2270
1%
#2280
b1101110 (
b1101110 1
b1101110 4
b1101110 6
0%
#2290
1%
#2300
b1101111 (
b1101111 1
b1101111 4
b1101111 6
0%
#2310
1%
#2320
b1110000 (
b1110000 1
b1110000 4
b1110000 6
0%
#2330
1%
#2340
b1110001 (
b1110001 1
b1110001 4
b1110001 6
0%
#2350
1%
#2360
b1110010 (
b1110010 1
b1110010 4
b1110010 6
0%
#2370
1%
#2380
b1110011 (
b1110011 1
b1110011 4
b1110011 6
0%
#2390
1%
#2400
b1110100 (
b1110100 1
b1110100 4
b1110100 6
0%
#2410
1%
#2420
b1110101 (
b1110101 1
b1110101 4
b1110101 6
0%
#2430
1%
#2440
b1110110 (
b1110110 1
b1110110 4
b1110110 6
0%
#2450
1%
#2460
b1110111 (
b1110111 1
b1110111 4
b1110111 6
0%
#2470
1%
#2480
b1111000 (
b1111000 1
b1111000 4
b1111000 6
0%
#2490
1%
#2500
b1111001 (
b1111001 1
b1111001 4
b1111001 6
0%
#2510
1%
#2520
b1111010 (
b1111010 1
b1111010 4
b1111010 6
0%
#2530
1%
#2540
b1111011 (
b1111011 1
b1111011 4
b1111011 6
0%
#2550
1%
#2560
b1111100 (
b1111100 1
b1111100 4
b1111100 6
0%
#2570
1%
#2580
b1111101 (
b1111101 1
b1111101 4
b1111101 6
0%
#2590
1%
#2600
b1111110 (
b1111110 1
b1111110 4
b1111110 6
0%
#2610
1%
#2620
b1111111 (
b1111111 1
b1111111 4
b1111111 6
0%
#2630
1%
#2640
b0 *
b0 /
b0 3
b1100000 +
b1100000 -
b1100000 0
1)
b0 (
b0 1
b0 4
b0 6
0%
#2650
15
1%
#2660
1"
0)
b1 (
b1 1
b1 4
b1 6
0%
#2670
05
1%
#2680
b10 (
b10 1
b10 4
b10 6
0%
#2690
1%
#2700
b11 (
b11 1
b11 4
b11 6
0%
#2710
1%
#2720
b100 (
b100 1
b100 4
b100 6
0%
#2730
1%
#2740
b101 (
b101 1
b101 4
b101 6
0%
#2750
1%
#2760
b110 (
b110 1
b110 4
b110 6
0%
#2770
1%
#2780
b111 (
b111 1
b111 4
b111 6
0%
#2790
1%
#2800
b1000 (
b1000 1
b1000 4
b1000 6
0%
#2810
1%
#2820
b1001 (
b1001 1
b1001 4
b1001 6
0%
#2830
1%
#2840
b1010 (
b1010 1
b1010 4
b1010 6
0%
#2850
1%
#2860
b1011 (
b1011 1
b1011 4
b1011 6
0%
#2870
1%
#2880
b1100 (
b1100 1
b1100 4
b1100 6
0%
#2890
1%
#2900
b1101 (
b1101 1
b1101 4
b1101 6
0%
#2910
1%
#2920
b1110 (
b1110 1
b1110 4
b1110 6
0%
#2930
1%
#2940
b1111 (
b1111 1
b1111 4
b1111 6
0%
#2950
1%
#2960
b10000 (
b10000 1
b10000 4
b10000 6
0%
#2970
1%
#2980
b10001 (
b10001 1
b10001 4
b10001 6
0%
#2990
1%
#3000
b10010 (
b10010 1
b10010 4
b10010 6
0%
#3010
1%
#3020
b10011 (
b10011 1
b10011 4
b10011 6
0%
#3030
1%
#3040
b10100 (
b10100 1
b10100 4
b10100 6
0%
#3050
1%
#3060
b10101 (
b10101 1
b10101 4
b10101 6
0%
#3070
1%
#3080
b10110 (
b10110 1
b10110 4
b10110 6
0%
#3090
1%
#3100
b10111 (
b10111 1
b10111 4
b10111 6
0%
#3110
1%
#3120
b11000 (
b11000 1
b11000 4
b11000 6
0%
#3130
1%
#3140
b11001 (
b11001 1
b11001 4
b11001 6
0%
#3150
1%
#3160
b11010 (
b11010 1
b11010 4
b11010 6
0%
#3170
1%
#3180
b11011 (
b11011 1
b11011 4
b11011 6
0%
#3190
1%
#3200
b11100 (
b11100 1
b11100 4
b11100 6
0%
#3210
1%
#3220
b11101 (
b11101 1
b11101 4
b11101 6
0%
#3230
1%
#3240
b11110 (
b11110 1
b11110 4
b11110 6
0%
#3250
1%
#3260
b11111 (
b11111 1
b11111 4
b11111 6
0%
#3270
1%
#3280
b100000 (
b100000 1
b100000 4
b100000 6
0%
#3290
1%
#3300
b100001 (
b100001 1
b100001 4
b100001 6
0%
#3310
1%
#3320
b100010 (
b100010 1
b100010 4
b100010 6
0%
#3330
1%
#3340
b100011 (
b100011 1
b100011 4
b100011 6
0%
#3350
1%
#3360
b100100 (
b100100 1
b100100 4
b100100 6
0%
#3370
1%
#3380
b100101 (
b100101 1
b100101 4
b100101 6
0%
#3390
1%
#3400
b100110 (
b100110 1
b100110 4
b100110 6
0%
#3410
1%
#3420
b100111 (
b100111 1
b100111 4
b100111 6
0%
#3430
1%
#3440
b101000 (
b101000 1
b101000 4
b101000 6
0%
#3450
1%
#3460
b101001 (
b101001 1
b101001 4
b101001 6
0%
#3470
1%
#3480
b101010 (
b101010 1
b101010 4
b101010 6
0%
#3490
1%
#3500
b101011 (
b101011 1
b101011 4
b101011 6
0%
#3510
1%
#3520
b101100 (
b101100 1
b101100 4
b101100 6
0%
#3530
1%
#3540
b101101 (
b101101 1
b101101 4
b101101 6
0%
#3550
1%
#3560
b101110 (
b101110 1
b101110 4
b101110 6
0%
#3570
1%
#3580
b101111 (
b101111 1
b101111 4
b101111 6
0%
#3590
1%
#3600
b110000 (
b110000 1
b110000 4
b110000 6
0%
#3610
1%
#3620
b110001 (
b110001 1
b110001 4
b110001 6
0%
#3630
1%
#3640
b110010 (
b110010 1
b110010 4
b110010 6
0%
#3650
1%
#3660
b110011 (
b110011 1
b110011 4
b110011 6
0%
#3670
1%
#3680
b110100 (
b110100 1
b110100 4
b110100 6
0%
#3690
1%
#3700
b110101 (
b110101 1
b110101 4
b110101 6
0%
#3710
1%
#3720
b110110 (
b110110 1
b110110 4
b110110 6
0%
#3730
1%
#3740
b110111 (
b110111 1
b110111 4
b110111 6
0%
#3750
1%
#3760
b111000 (
b111000 1
b111000 4
b111000 6
0%
#3770
1%
#3780
b111001 (
b111001 1
b111001 4
b111001 6
0%
#3790
1%
#3800
b111010 (
b111010 1
b111010 4
b111010 6
0%
#3810
1%
#3820
b111011 (
b111011 1
b111011 4
b111011 6
0%
#3830
1%
#3840
b111100 (
b111100 1
b111100 4
b111100 6
0%
#3850
1%
#3860
b111101 (
b111101 1
b111101 4
b111101 6
0%
#3870
1%
#3880
b111110 (
b111110 1
b111110 4
b111110 6
0%
#3890
1%
#3900
b111111 (
b111111 1
b111111 4
b111111 6
0%
#3910
1%
#3920
b1000000 (
b1000000 1
b1000000 4
b1000000 6
0%
#3930
1%
#3940
b1000001 (
b1000001 1
b1000001 4
b1000001 6
0%
#3950
1%
#3960
b1000010 (
b1000010 1
b1000010 4
b1000010 6
0%
#3970
1%
#3980
b1000011 (
b1000011 1
b1000011 4
b1000011 6
0%
#3990
1%
#4000
b1000100 (
b1000100 1
b1000100 4
b1000100 6
0%
#4010
1%
#4020
b1000101 (
b1000101 1
b1000101 4
b1000101 6
0%
#4030
1%
#4040
b1000110 (
b1000110 1
b1000110 4
b1000110 6
0%
#4050
1%
#4060
b1000111 (
b1000111 1
b1000111 4
b1000111 6
0%
#4070
1%
#4080
b1001000 (
b1001000 1
b1001000 4
b1001000 6
0%
#4090
1%
#4100
b1001001 (
b1001001 1
b1001001 4
b1001001 6
0%
#4110
1%
#4120
b1001010 (
b1001010 1
b1001010 4
b1001010 6
0%
#4130
1%
#4140
b1001011 (
b1001011 1
b1001011 4
b1001011 6
0%
#4150
1%
#4160
b1001100 (
b1001100 1
b1001100 4
b1001100 6
0%
#4170
1%
#4180
b1001101 (
b1001101 1
b1001101 4
b1001101 6
0%
#4190
1%
#4200
b1001110 (
b1001110 1
b1001110 4
b1001110 6
0%
#4210
1%
#4220
b1001111 (
b1001111 1
b1001111 4
b1001111 6
0%
#4230
1%
#4240
b1010000 (
b1010000 1
b1010000 4
b1010000 6
0%
#4250
1%
#4260
b1010001 (
b1010001 1
b1010001 4
b1010001 6
0%
#4270
1%
#4280
b1010010 (
b1010010 1
b1010010 4
b1010010 6
0%
#4290
1%
#4300
b1010011 (
b1010011 1
b1010011 4
b1010011 6
0%
#4310
1%
#4320
b1010100 (
b1010100 1
b1010100 4
b1010100 6
0%
#4330
1%
#4340
b1010101 (
b1010101 1
b1010101 4
b1010101 6
0%
#4350
1%
#4360
b1010110 (
b1010110 1
b1010110 4
b1010110 6
0%
#4370
1%
#4380
b1010111 (
b1010111 1
b1010111 4
b1010111 6
0%
#4390
1%
#4400
b1011000 (
b1011000 1
b1011000 4
b1011000 6
0%
#4410
1%
#4420
b1011001 (
b1011001 1
b1011001 4
b1011001 6
0%
#4430
1%
#4440
b1011010 (
b1011010 1
b1011010 4
b1011010 6
0%
#4450
1%
#4460
b1011011 (
b1011011 1
b1011011 4
b1011011 6
0%
#4470
1%
#4480
b1011100 (
b1011100 1
b1011100 4
b1011100 6
0%
#4490
1%
#4500
b1011101 (
b1011101 1
b1011101 4
b1011101 6
0%
#4510
1%
#4520
b1011110 (
b1011110 1
b1011110 4
b1011110 6
0%
#4530
1%
#4540
b1011111 (
b1011111 1
b1011111 4
b1011111 6
0%
#4550
1%
#4560
b1100000 (
b1100000 1
b1100000 4
b1100000 6
0%
#4570
12
1%
#4580
0"
b1100001 (
b1100001 1
b1100001 4
b1100001 6
0%
#4590
02
1%
#4600
b1100010 (
b1100010 1
b1100010 4
b1100010 6
0%
#4610
1%
#4620
b1100011 (
b1100011 1
b1100011 4
b1100011 6
0%
#4630
1%
#4640
b1100100 (
b1100100 1
b1100100 4
b1100100 6
0%
#4650
1%
#4660
b1100101 (
b1100101 1
b1100101 4
b1100101 6
0%
#4670
1%
#4680
b1100110 (
b1100110 1
b1100110 4
b1100110 6
0%
#4690
1%
#4700
b1100111 (
b1100111 1
b1100111 4
b1100111 6
0%
#4710
1%
#4720
b1101000 (
b1101000 1
b1101000 4
b1101000 6
0%
#4730
1%
#4740
b1101001 (
b1101001 1
b1101001 4
b1101001 6
0%
#4750
1%
#4760
b1101010 (
b1101010 1
b1101010 4
b1101010 6
0%
#4770
1%
#4780
b1101011 (
b1101011 1
b1101011 4
b1101011 6
0%
#4790
1%
#4800
b1101100 (
b1101100 1
b1101100 4
b1101100 6
0%
#4810
1%
#4820
b1101101 (
b1101101 1
b1101101 4
b1101101 6
0%
#4830
1%
#4840
b1101110 (
b1101110 1
b1101110 4
b1101110 6
0%
#4850
1%
#4860
b1101111 (
b1101111 1
b1101111 4
b1101111 6
0%
#4870
1%
#4880
b1110000 (
b1110000 1
b1110000 4
b1110000 6
0%
#4890
1%
#4900
b1110001 (
b1110001 1
b1110001 4
b1110001 6
0%
#4910
1%
#4920
b1110010 (
b1110010 1
b1110010 4
b1110010 6
0%
#4930
1%
#4940
b1110011 (
b1110011 1
b1110011 4
b1110011 6
0%
#4950
1%
#4960
b1110100 (
b1110100 1
b1110100 4
b1110100 6
0%
#4970
1%
#4980
b1110101 (
b1110101 1
b1110101 4
b1110101 6
0%
#4990
1%
#5000
b1110110 (
b1110110 1
b1110110 4
b1110110 6
0%
