build/7SegDriver.vcd
$date
	Thu Oct 19 15:25:56 2023
$end
$version
	Icarus Verilog
$end
$timescale
	1ns
$end
$scope module testbench $end
$var wire 1 ! display $end
$var wire 8 " decimalTemp [7:0] $end
$var reg 1 # CLK $end
$var reg 1 $ CorrectStation $end
$var reg 12 % digitalTemp [11:0] $end
$scope module UUT $end
$var wire 1 # CLK $end
$var wire 1 $ CorrectStation $end
$var wire 12 & digitalTemp [11:0] $end
$var wire 1 ! display $end
$var parameter 32 ' CAPTURE $end
$var parameter 32 ( DIVISION $end
$var parameter 32 ) IDLE $end
$var parameter 32 * OUTPUT $end
$var reg 1 + busy $end
$var reg 12 , capture [11:0] $end
$var reg 8 - decimalTemp [7:0] $end
$var reg 3 . state [2:0] $end
$var reg 8 / y [7:0] $end
$upscope $end
$upscope $end
$enddefinitions $end
$comment Show the parameter values. $end
$dumpall
b11 *
b0 )
b10 (
b1 '
$end
#0
$dumpvars
b0 /
b0 .
b0 -
b0 ,
0+
b101101010 &
b101101010 %
0$
0#
b0 "
0!
$end
#5
1#
#10
0#
#15
1#
#20
0#
#25
1#
#30
0#
#35
1#
#40
0#
1!
1$
#45
b1 .
1#
#50
0#
#55
b10 .
1+
b101101010 ,
b11111111 "
b11111111 -
1#
#60
0#
#65
b1 /
b100100110 ,
1#
#70
0#
#75
b10 /
b11100010 ,
1#
#80
0#
#85
b11 /
b10011110 ,
1#
#90
0#
#95
b100 /
b1011010 ,
1#
#100
0#
#105
b11 .
b101 /
b10110 ,
1#
#110
0#
#115
b101 "
b101 -
0+
1#
