build/materialSystem.vcd
$date
	Fri Nov 17 11:28:04 2023
$end
$version
	Icarus Verilog
$end
$timescale
	100us
$end
$scope module testbench $end
$var wire 1 ! correct $end
$var wire 1 " controlServo $end
$var wire 1 # controlEM $end
$var parameter 32 $ PRD $end
$var parameter 32 % SCALE $end
$var reg 1 & ACLK $end
$var reg 12 ' digitalTemp [11:0] $end
$var reg 1 ( ready $end
$var reg 1 ) trigger $end
$scope module UUT $end
$var wire 1 & CLK $end
$var wire 12 * digitalTemp [11:0] $end
$var wire 1 ( ready $end
$var wire 1 ) trigger $end
$var parameter 2 + COLD $end
$var parameter 4 , CORRECT $end
$var parameter 32 - DOWN $end
$var parameter 4 . FINDPICKUP $end
$var parameter 2 / FINISH $end
$var parameter 2 0 HOT $end
$var parameter 4 1 IDLE $end
$var parameter 4 2 LeaveDropoff $end
$var parameter 32 3 OFF $end
$var parameter 32 4 ON $end
$var parameter 4 5 PICKUP $end
$var parameter 4 6 READ $end
$var parameter 2 7 START $end
$var parameter 32 8 Threshold1 $end
$var parameter 32 9 Threshold2 $end
$var parameter 32 : UP $end
$var reg 1 # controlEM $end
$var reg 1 " controlServo $end
$var reg 1 ! correctStation $end
$var reg 4 ; state [3:0] $end
$var reg 2 < station [1:0] $end
$upscope $end
$scope begin $ivl_for_loop0 $end
$var integer 32 = i [31:0] $end
$upscope $end
$upscope $end
$enddefinitions $end
$comment Show the parameter values. $end
$dumpall
b0 :
b11101101100 9
b10010110000 8
b0 7
b1 6
b101 5
b1 4
b0 3
b11 2
b0 1
b1 0
b11 /
b100 .
b1 -
b10 ,
b10 +
b1000100 %
b1010 $
$end
#0
$dumpvars
bx =
b0 <
b0 ;
b11010100100 *
0)
1(
b11010100100 '
0&
0#
0"
0!
$end
#5
1&
#10
0&
#15
1&
#20
0&
#25
1&
#30
0&
#35
1&
#40
0&
#45
1&
#50
0&
1)
b0 =
#55
b1 ;
1&
#60
0&
#65
b10 ;
1&
#70
0&
#75
b11 ;
b1 <
1!
1&
#80
0&
#85
1&
#90
0&
#95
1&
#100
0&
0)
#105
b100 ;
1&
#110
0&
#115
1&
#120
0&
#125
1&
#130
0&
#135
1&
#140
0&
#145
1&
#150
0&
#155
1&
#160
0&
#165
1&
#170
0&
#175
1&
#180
0&
#185
1&
#190
0&
#195
1&
#200
0&
#205
1&
#210
0&
#215
1&
#220
0&
#225
1&
#230
0&
#235
1&
#240
0&
#245
1&
#250
0&
#255
1&
#260
0&
#265
1&
#270
0&
#275
1&
#280
0&
#285
1&
#290
0&
#295
1&
#300
0&
#305
1&
#310
0&
#315
1&
#320
0&
#325
1&
#330
0&
#335
1&
#340
0&
#345
1&
#350
0&
1)
#355
b101 ;
1&
#360
0&
#365
1"
1#
1&
#370
0&
#375
1&
#380
0&
#385
1&
#390
0&
#395
1&
#400
0&
0)
#405
b0 ;
1&
#410
0&
#415
0!
0"
1&
