build/PWM_waveform.vcd
$date
	Mon Sep 11 14:16:23 2023
$end
$version
	Icarus Verilog
$end
$timescale
	1s
$end
$scope module testbench $end
$var wire 1 ! PWM_OUT $end
$var wire 1 " E $end
$var reg 1 # CLK $end
$var reg 7 $ Switches [6:0] $end
$scope module UUT $end
$var wire 1 # CLK $end
$var wire 1 " E $end
$var wire 7 % SW [6:0] $end
$var wire 7 & TCR_internal [6:0] $end
$var wire 1 ! PWM_OUT $end
$var wire 1 ' E_internal $end
$var wire 7 ( CCR_internal [6:0] $end
$scope module CCR0 $end
$var wire 7 ) SW [6:0] $end
$var wire 1 ' E $end
$var reg 7 * CCR_OUT [6:0] $end
$upscope $end
$scope module PWM0 $end
$var wire 7 + CCR [6:0] $end
$var wire 1 # CLK $end
$var wire 7 , TCR [6:0] $end
$var wire 1 - R $end
$var wire 1 ' E $end
$var reg 1 ! PWM_OUT $end
$scope module R0 $end
$var wire 7 . CCR [6:0] $end
$var wire 1 - R $end
$var wire 7 / TCR [6:0] $end
$upscope $end
$upscope $end
$scope module TCR0 $end
$var wire 1 # CLK $end
$var wire 7 0 TCR [6:0] $end
$var reg 1 ' E $end
$scope module T0 $end
$var wire 1 # CLK $end
$var reg 1 1 T $end
$upscope $end
$scope module T1 $end
$var wire 1 2 CLK $end
$var reg 1 3 T $end
$upscope $end
$scope module T2 $end
$var wire 1 4 CLK $end
$var reg 1 5 T $end
$upscope $end
$scope module T3 $end
$var wire 1 6 CLK $end
$var reg 1 7 T $end
$upscope $end
$scope module T4 $end
$var wire 1 8 CLK $end
$var reg 1 9 T $end
$upscope $end
$scope module T5 $end
$var wire 1 : CLK $end
$var reg 1 ; T $end
$upscope $end
$scope module T6 $end
$var wire 1 < CLK $end
$var reg 1 = T $end
$upscope $end
$upscope $end
$upscope $end
$upscope $end
$enddefinitions $end
$comment Show the parameter values. $end
$dumpall
$end
#0
$dumpvars
0=
0<
0;
0:
09
08
07
06
05
04
03
02
01
b0 0
b0 /
b100 .
0-
b0 ,
b100 +
b100 *
b100 )
b100 (
1'
b0 &
b100 %
b100 $
0#
1"
0!
$end
#1
1!
1#
#2
0"
0'
12
b1 &
b1 ,
b1 /
b1 0
11
0#
#3
1#
#4
14
13
02
b10 &
b10 ,
b10 /
b10 0
01
0#
#5
1#
#6
12
b11 &
b11 ,
b11 /
b11 0
11
0#
b10001 $
b10001 %
b10001 )
#7
1#
#8
1-
16
15
04
03
02
b100 &
b100 ,
b100 /
b100 0
01
0#
#9
0!
1#
#10
0-
12
b101 &
b101 ,
b101 /
b101 0
11
0#
#11
1#
#12
0-
14
13
02
b110 &
b110 ,
b110 /
b110 0
01
0#
#13
1#
#14
12
b111 &
b111 ,
b111 /
b111 0
11
0#
#15
1#
#16
0-
18
17
06
05
04
03
02
b1000 &
b1000 ,
b1000 /
b1000 0
01
0#
#17
1#
#18
12
b1001 &
b1001 ,
b1001 /
b1001 0
11
0#
#19
1#
#20
14
13
02
b1010 &
b1010 ,
b1010 /
b1010 0
01
0#
#21
1#
#22
12
b1011 &
b1011 ,
b1011 /
b1011 0
11
0#
#23
1#
#24
16
15
04
03
02
b1100 &
b1100 ,
b1100 /
b1100 0
01
0#
#25
1#
#26
12
b1101 &
b1101 ,
b1101 /
b1101 0
11
0#
#27
1#
#28
14
13
02
b1110 &
b1110 ,
b1110 /
b1110 0
01
0#
#29
1#
#30
12
b1111 &
b1111 ,
b1111 /
b1111 0
11
0#
#31
1#
#32
1:
19
08
07
06
05
04
03
02
b10000 &
b10000 ,
b10000 /
b10000 0
01
0#
#33
1#
#34
12
b10001 &
b10001 ,
b10001 /
b10001 0
11
0#
#35
1#
#36
14
13
02
b10010 &
b10010 ,
b10010 /
b10010 0
01
0#
#37
1#
#38
12
b10011 &
b10011 ,
b10011 /
b10011 0
11
0#
#39
1#
#40
16
15
04
03
02
b10100 &
b10100 ,
b10100 /
b10100 0
01
0#
#41
1#
#42
12
b10101 &
b10101 ,
b10101 /
b10101 0
11
0#
#43
1#
#44
14
13
02
b10110 &
b10110 ,
b10110 /
b10110 0
01
0#
#45
1#
#46
12
b10111 &
b10111 ,
b10111 /
b10111 0
11
0#
#47
1#
#48
18
17
06
05
04
03
02
b11000 &
b11000 ,
b11000 /
b11000 0
01
0#
#49
1#
#50
12
b11001 &
b11001 ,
b11001 /
b11001 0
11
0#
#51
1#
#52
14
13
02
b11010 &
b11010 ,
b11010 /
b11010 0
01
0#
#53
1#
#54
12
b11011 &
b11011 ,
b11011 /
b11011 0
11
0#
#55
1#
#56
16
15
04
03
02
b11100 &
b11100 ,
b11100 /
b11100 0
01
0#
#57
1#
#58
12
b11101 &
b11101 ,
b11101 /
b11101 0
11
0#
#59
1#
#60
14
13
02
b11110 &
b11110 ,
b11110 /
b11110 0
01
0#
#61
1#
#62
12
b11111 &
b11111 ,
b11111 /
b11111 0
11
0#
#63
1#
#64
1<
1;
0:
09
08
07
06
05
04
03
02
b100000 &
b100000 ,
b100000 /
b100000 0
01
0#
#65
1#
#66
12
b100001 &
b100001 ,
b100001 /
b100001 0
11
0#
#67
1#
#68
14
13
02
b100010 &
b100010 ,
b100010 /
b100010 0
01
0#
#69
1#
#70
12
b100011 &
b100011 ,
b100011 /
b100011 0
11
0#
#71
1#
#72
16
15
04
03
02
b100100 &
b100100 ,
b100100 /
b100100 0
01
0#
#73
1#
#74
12
b100101 &
b100101 ,
b100101 /
b100101 0
11
0#
#75
1#
#76
14
13
02
b100110 &
b100110 ,
b100110 /
b100110 0
01
0#
#77
1#
#78
12
b100111 &
b100111 ,
b100111 /
b100111 0
11
0#
#79
1#
#80
18
17
06
05
04
03
02
b101000 &
b101000 ,
b101000 /
b101000 0
01
0#
#81
1#
#82
12
b101001 &
b101001 ,
b101001 /
b101001 0
11
0#
#83
1#
#84
14
13
02
b101010 &
b101010 ,
b101010 /
b101010 0
01
0#
#85
1#
#86
12
b101011 &
b101011 ,
b101011 /
b101011 0
11
0#
#87
1#
#88
16
15
04
03
02
b101100 &
b101100 ,
b101100 /
b101100 0
01
0#
#89
1#
#90
12
b101101 &
b101101 ,
b101101 /
b101101 0
11
0#
#91
1#
#92
14
13
02
b101110 &
b101110 ,
b101110 /
b101110 0
01
0#
#93
1#
#94
12
b101111 &
b101111 ,
b101111 /
b101111 0
11
0#
#95
1#
#96
1:
19
08
07
06
05
04
03
02
b110000 &
b110000 ,
b110000 /
b110000 0
01
0#
#97
1#
#98
12
b110001 &
b110001 ,
b110001 /
b110001 0
11
0#
#99
1#
#100
14
13
02
b110010 &
b110010 ,
b110010 /
b110010 0
01
0#
#101
1#
#102
12
b110011 &
b110011 ,
b110011 /
b110011 0
11
0#
#103
1#
#104
16
15
04
03
02
b110100 &
b110100 ,
b110100 /
b110100 0
01
0#
#105
1#
#106
12
b110101 &
b110101 ,
b110101 /
b110101 0
11
0#
#107
1#
#108
14
13
02
b110110 &
b110110 ,
b110110 /
b110110 0
01
0#
#109
1#
#110
12
b110111 &
b110111 ,
b110111 /
b110111 0
11
0#
#111
1#
#112
18
17
06
05
04
03
02
b111000 &
b111000 ,
b111000 /
b111000 0
01
0#
#113
1#
#114
12
b111001 &
b111001 ,
b111001 /
b111001 0
11
0#
#115
1#
#116
14
13
02
b111010 &
b111010 ,
b111010 /
b111010 0
01
0#
#117
1#
#118
12
b111011 &
b111011 ,
b111011 /
b111011 0
11
0#
#119
1#
#120
16
15
04
03
02
b111100 &
b111100 ,
b111100 /
b111100 0
01
0#
#121
1#
#122
12
b111101 &
b111101 ,
b111101 /
b111101 0
11
0#
#123
1#
#124
14
13
02
b111110 &
b111110 ,
b111110 /
b111110 0
01
0#
#125
1#
#126
12
b111111 &
b111111 ,
b111111 /
b111111 0
11
0#
#127
1#
#128
1=
0<
0;
0:
09
08
07
06
05
04
03
02
b1000000 &
b1000000 ,
b1000000 /
b1000000 0
01
0#
#129
1#
#130
12
b1000001 &
b1000001 ,
b1000001 /
b1000001 0
11
0#
#131
1#
#132
14
13
02
b1000010 &
b1000010 ,
b1000010 /
b1000010 0
01
0#
#133
1#
#134
12
b1000011 &
b1000011 ,
b1000011 /
b1000011 0
11
0#
#135
1#
#136
16
15
04
03
02
b1000100 &
b1000100 ,
b1000100 /
b1000100 0
01
0#
#137
1#
#138
12
b1000101 &
b1000101 ,
b1000101 /
b1000101 0
11
0#
#139
1#
#140
14
13
02
b1000110 &
b1000110 ,
b1000110 /
b1000110 0
01
0#
#141
1#
#142
12
b1000111 &
b1000111 ,
b1000111 /
b1000111 0
11
0#
#143
1#
#144
18
17
06
05
04
03
02
b1001000 &
b1001000 ,
b1001000 /
b1001000 0
01
0#
#145
1#
#146
12
b1001001 &
b1001001 ,
b1001001 /
b1001001 0
11
0#
#147
1#
#148
14
13
02
b1001010 &
b1001010 ,
b1001010 /
b1001010 0
01
0#
#149
1#
#150
12
b1001011 &
b1001011 ,
b1001011 /
b1001011 0
11
0#
#151
1#
#152
16
15
04
03
02
b1001100 &
b1001100 ,
b1001100 /
b1001100 0
01
0#
#153
1#
#154
12
b1001101 &
b1001101 ,
b1001101 /
b1001101 0
11
0#
#155
1#
#156
14
13
02
b1001110 &
b1001110 ,
b1001110 /
b1001110 0
01
0#
#157
1#
#158
12
b1001111 &
b1001111 ,
b1001111 /
b1001111 0
11
0#
#159
1#
#160
1:
19
08
07
06
05
04
03
02
b1010000 &
b1010000 ,
b1010000 /
b1010000 0
01
0#
#161
1#
#162
12
b1010001 &
b1010001 ,
b1010001 /
b1010001 0
11
0#
#163
1#
#164
14
13
02
b1010010 &
b1010010 ,
b1010010 /
b1010010 0
01
0#
#165
1#
#166
12
b1010011 &
b1010011 ,
b1010011 /
b1010011 0
11
0#
#167
1#
#168
16
15
04
03
02
b1010100 &
b1010100 ,
b1010100 /
b1010100 0
01
0#
#169
1#
#170
12
b1010101 &
b1010101 ,
b1010101 /
b1010101 0
11
0#
#171
1#
#172
14
13
02
b1010110 &
b1010110 ,
b1010110 /
b1010110 0
01
0#
#173
1#
#174
12
b1010111 &
b1010111 ,
b1010111 /
b1010111 0
11
0#
#175
1#
#176
18
17
06
05
04
03
02
b1011000 &
b1011000 ,
b1011000 /
b1011000 0
01
0#
#177
1#
#178
12
b1011001 &
b1011001 ,
b1011001 /
b1011001 0
11
0#
#179
1#
#180
14
13
02
b1011010 &
b1011010 ,
b1011010 /
b1011010 0
01
0#
#181
1#
#182
12
b1011011 &
b1011011 ,
b1011011 /
b1011011 0
11
0#
#183
1#
#184
16
15
04
03
02
b1011100 &
b1011100 ,
b1011100 /
b1011100 0
01
0#
#185
1#
#186
12
b1011101 &
b1011101 ,
b1011101 /
b1011101 0
11
0#
#187
1#
#188
14
13
02
b1011110 &
b1011110 ,
b1011110 /
b1011110 0
01
0#
#189
1#
#190
12
b1011111 &
b1011111 ,
b1011111 /
b1011111 0
11
0#
#191
1#
#192
1<
1;
0:
09
08
07
06
05
04
03
02
b1100000 &
b1100000 ,
b1100000 /
b1100000 0
01
0#
#193
1#
#194
12
b1100001 &
b1100001 ,
b1100001 /
b1100001 0
11
0#
#195
1#
#196
14
13
02
b1100010 &
b1100010 ,
b1100010 /
b1100010 0
01
0#
#197
1#
#198
12
b1100011 &
b1100011 ,
b1100011 /
b1100011 0
11
0#
#199
1#
#200
16
15
04
03
02
b1100100 &
b1100100 ,
b1100100 /
b1100100 0
01
0#
#201
1#
#202
12
b1100101 &
b1100101 ,
b1100101 /
b1100101 0
11
0#
#203
1#
#204
14
13
02
b1100110 &
b1100110 ,
b1100110 /
b1100110 0
01
0#
#205
1#
#206
12
b1100111 &
b1100111 ,
b1100111 /
b1100111 0
11
0#
#207
1#
#208
18
17
06
05
04
03
02
b1101000 &
b1101000 ,
b1101000 /
b1101000 0
01
0#
#209
1#
#210
12
b1101001 &
b1101001 ,
b1101001 /
b1101001 0
11
0#
#211
1#
#212
14
13
02
b1101010 &
b1101010 ,
b1101010 /
b1101010 0
01
0#
#213
1#
#214
12
b1101011 &
b1101011 ,
b1101011 /
b1101011 0
11
0#
#215
1#
#216
16
15
04
03
02
b1101100 &
b1101100 ,
b1101100 /
b1101100 0
01
0#
#217
1#
#218
12
b1101101 &
b1101101 ,
b1101101 /
b1101101 0
11
0#
#219
1#
#220
14
13
02
b1101110 &
b1101110 ,
b1101110 /
b1101110 0
01
0#
#221
1#
#222
12
b1101111 &
b1101111 ,
b1101111 /
b1101111 0
11
0#
#223
1#
#224
1:
19
08
07
06
05
04
03
02
b1110000 &
b1110000 ,
b1110000 /
b1110000 0
01
0#
#225
1#
#226
12
b1110001 &
b1110001 ,
b1110001 /
b1110001 0
11
0#
#227
1#
#228
14
13
02
b1110010 &
b1110010 ,
b1110010 /
b1110010 0
01
0#
#229
1#
#230
12
b1110011 &
b1110011 ,
b1110011 /
b1110011 0
11
0#
#231
1#
#232
16
15
04
03
02
b1110100 &
b1110100 ,
b1110100 /
b1110100 0
01
0#
#233
1#
#234
12
b1110101 &
b1110101 ,
b1110101 /
b1110101 0
11
0#
#235
1#
#236
14
13
02
b1110110 &
b1110110 ,
b1110110 /
b1110110 0
01
0#
#237
1#
#238
12
b1110111 &
b1110111 ,
b1110111 /
b1110111 0
11
0#
#239
1#
#240
18
17
06
05
04
03
02
b1111000 &
b1111000 ,
b1111000 /
b1111000 0
01
0#
#241
1#
#242
12
b1111001 &
b1111001 ,
b1111001 /
b1111001 0
11
0#
#243
1#
#244
14
13
02
b1111010 &
b1111010 ,
b1111010 /
b1111010 0
01
0#
#245
1#
#246
12
b1111011 &
b1111011 ,
b1111011 /
b1111011 0
11
0#
#247
1#
#248
16
15
04
03
02
b1111100 &
b1111100 ,
b1111100 /
b1111100 0
01
0#
#249
1#
#250
12
b1111101 &
b1111101 ,
b1111101 /
b1111101 0
11
0#
#251
1#
#252
14
13
02
b1111110 &
b1111110 ,
b1111110 /
b1111110 0
01
0#
#253
1#
#254
12
b1111111 &
b1111111 ,
b1111111 /
b1111111 0
11
0#
#255
1#
#256
b10001 (
b10001 *
b10001 +
b10001 .
1"
1'
0=
0<
0;
0:
09
08
07
06
05
04
03
02
b0 &
b0 ,
b0 /
b0 0
01
0#
#257
1!
1#
#258
0"
0'
12
b1 &
b1 ,
b1 /
b1 0
11
0#
#259
1#
#260
14
13
02
b10 &
b10 ,
b10 /
b10 0
01
0#
#261
1#
#262
12
b11 &
b11 ,
b11 /
b11 0
11
0#
#263
1#
#264
16
15
04
03
02
b100 &
b100 ,
b100 /
b100 0
01
0#
#265
1#
#266
12
b101 &
b101 ,
b101 /
b101 0
11
0#
#267
1#
#268
14
13
02
b110 &
b110 ,
b110 /
b110 0
01
0#
#269
1#
#270
12
b111 &
b111 ,
b111 /
b111 0
11
0#
#271
1#
#272
18
17
06
05
04
03
02
b1000 &
b1000 ,
b1000 /
b1000 0
01
0#
#273
1#
#274
12
b1001 &
b1001 ,
b1001 /
b1001 0
11
0#
#275
1#
#276
14
13
02
b1010 &
b1010 ,
b1010 /
b1010 0
01
0#
#277
1#
#278
12
b1011 &
b1011 ,
b1011 /
b1011 0
11
0#
#279
1#
#280
16
15
04
03
02
b1100 &
b1100 ,
b1100 /
b1100 0
01
0#
#281
1#
#282
12
b1101 &
b1101 ,
b1101 /
b1101 0
11
0#
#283
1#
#284
14
13
02
b1110 &
b1110 ,
b1110 /
b1110 0
01
0#
#285
1#
#286
12
b1111 &
b1111 ,
b1111 /
b1111 0
11
0#
#287
1#
#288
1:
19
08
07
06
05
04
03
02
b10000 &
b10000 ,
b10000 /
b10000 0
01
0#
#289
1#
#290
1-
12
b10001 &
b10001 ,
b10001 /
b10001 0
11
0#
#291
0!
1#
#292
0-
14
13
02
b10010 &
b10010 ,
b10010 /
b10010 0
01
0#
#293
1#
#294
12
b10011 &
b10011 ,
b10011 /
b10011 0
11
0#
#295
1#
#296
16
15
04
03
02
b10100 &
b10100 ,
b10100 /
b10100 0
01
0#
#297
1#
#298
12
b10101 &
b10101 ,
b10101 /
b10101 0
11
0#
#299
1#
#300
14
13
02
b10110 &
b10110 ,
b10110 /
b10110 0
01
0#
#301
1#
#302
12
b10111 &
b10111 ,
b10111 /
b10111 0
11
0#
#303
1#
#304
18
17
06
05
04
03
02
b11000 &
b11000 ,
b11000 /
b11000 0
01
0#
#305
1#
#306
12
b11001 &
b11001 ,
b11001 /
b11001 0
11
0#
b0 $
b0 %
b0 )
#307
1#
#308
14
13
02
b11010 &
b11010 ,
b11010 /
b11010 0
01
0#
#309
1#
#310
12
b11011 &
b11011 ,
b11011 /
b11011 0
11
0#
#311
1#
#312
16
15
04
03
02
b11100 &
b11100 ,
b11100 /
b11100 0
01
0#
#313
1#
#314
12
b11101 &
b11101 ,
b11101 /
b11101 0
11
0#
#315
1#
#316
14
13
02
b11110 &
b11110 ,
b11110 /
b11110 0
01
0#
#317
1#
#318
12
b11111 &
b11111 ,
b11111 /
b11111 0
11
0#
#319
1#
#320
1<
1;
0:
09
08
07
06
05
04
03
02
b100000 &
b100000 ,
b100000 /
b100000 0
01
0#
#321
1#
#322
12
b100001 &
b100001 ,
b100001 /
b100001 0
11
0#
#323
1#
#324
14
13
02
b100010 &
b100010 ,
b100010 /
b100010 0
01
0#
#325
1#
#326
12
b100011 &
b100011 ,
b100011 /
b100011 0
11
0#
#327
1#
#328
16
15
04
03
02
b100100 &
b100100 ,
b100100 /
b100100 0
01
0#
#329
1#
#330
12
b100101 &
b100101 ,
b100101 /
b100101 0
11
0#
#331
1#
#332
14
13
02
b100110 &
b100110 ,
b100110 /
b100110 0
01
0#
#333
1#
#334
12
b100111 &
b100111 ,
b100111 /
b100111 0
11
0#
#335
1#
#336
18
17
06
05
04
03
02
b101000 &
b101000 ,
b101000 /
b101000 0
01
0#
#337
1#
#338
12
b101001 &
b101001 ,
b101001 /
b101001 0
11
0#
#339
1#
#340
14
13
02
b101010 &
b101010 ,
b101010 /
b101010 0
01
0#
#341
1#
#342
12
b101011 &
b101011 ,
b101011 /
b101011 0
11
0#
#343
1#
#344
16
15
04
03
02
b101100 &
b101100 ,
b101100 /
b101100 0
01
0#
#345
1#
#346
12
b101101 &
b101101 ,
b101101 /
b101101 0
11
0#
#347
1#
#348
14
13
02
b101110 &
b101110 ,
b101110 /
b101110 0
01
0#
#349
1#
#350
12
b101111 &
b101111 ,
b101111 /
b101111 0
11
0#
#351
1#
#352
1:
19
08
07
06
05
04
03
02
b110000 &
b110000 ,
b110000 /
b110000 0
01
0#
#353
1#
#354
12
b110001 &
b110001 ,
b110001 /
b110001 0
11
0#
#355
1#
#356
14
13
02
b110010 &
b110010 ,
b110010 /
b110010 0
01
0#
#357
1#
#358
12
b110011 &
b110011 ,
b110011 /
b110011 0
11
0#
#359
1#
#360
16
15
04
03
02
b110100 &
b110100 ,
b110100 /
b110100 0
01
0#
#361
1#
#362
12
b110101 &
b110101 ,
b110101 /
b110101 0
11
0#
#363
1#
#364
14
13
02
b110110 &
b110110 ,
b110110 /
b110110 0
01
0#
#365
1#
#366
12
b110111 &
b110111 ,
b110111 /
b110111 0
11
0#
#367
1#
#368
18
17
06
05
04
03
02
b111000 &
b111000 ,
b111000 /
b111000 0
01
0#
#369
1#
#370
12
b111001 &
b111001 ,
b111001 /
b111001 0
11
0#
#371
1#
#372
14
13
02
b111010 &
b111010 ,
b111010 /
b111010 0
01
0#
#373
1#
#374
12
b111011 &
b111011 ,
b111011 /
b111011 0
11
0#
#375
1#
#376
16
15
04
03
02
b111100 &
b111100 ,
b111100 /
b111100 0
01
0#
#377
1#
#378
12
b111101 &
b111101 ,
b111101 /
b111101 0
11
0#
#379
1#
#380
14
13
02
b111110 &
b111110 ,
b111110 /
b111110 0
01
0#
#381
1#
#382
12
b111111 &
b111111 ,
b111111 /
b111111 0
11
0#
#383
1#
#384
1=
0<
0;
0:
09
08
07
06
05
04
03
02
b1000000 &
b1000000 ,
b1000000 /
b1000000 0
01
0#
#385
1#
#386
12
b1000001 &
b1000001 ,
b1000001 /
b1000001 0
11
0#
#387
1#
#388
14
13
02
b1000010 &
b1000010 ,
b1000010 /
b1000010 0
01
0#
#389
1#
#390
12
b1000011 &
b1000011 ,
b1000011 /
b1000011 0
11
0#
#391
1#
#392
16
15
04
03
02
b1000100 &
b1000100 ,
b1000100 /
b1000100 0
01
0#
#393
1#
#394
12
b1000101 &
b1000101 ,
b1000101 /
b1000101 0
11
0#
#395
1#
#396
14
13
02
b1000110 &
b1000110 ,
b1000110 /
b1000110 0
01
0#
#397
1#
#398
12
b1000111 &
b1000111 ,
b1000111 /
b1000111 0
11
0#
#399
1#
#400
18
17
06
05
04
03
02
b1001000 &
b1001000 ,
b1001000 /
b1001000 0
01
0#
#401
1#
#402
12
b1001001 &
b1001001 ,
b1001001 /
b1001001 0
11
0#
#403
1#
#404
14
13
02
b1001010 &
b1001010 ,
b1001010 /
b1001010 0
01
0#
#405
1#
#406
12
b1001011 &
b1001011 ,
b1001011 /
b1001011 0
11
0#
#407
1#
#408
16
15
04
03
02
b1001100 &
b1001100 ,
b1001100 /
b1001100 0
01
0#
#409
1#
#410
12
b1001101 &
b1001101 ,
b1001101 /
b1001101 0
11
0#
#411
1#
#412
14
13
02
b1001110 &
b1001110 ,
b1001110 /
b1001110 0
01
0#
#413
1#
#414
12
b1001111 &
b1001111 ,
b1001111 /
b1001111 0
11
0#
#415
1#
#416
1:
19
08
07
06
05
04
03
02
b1010000 &
b1010000 ,
b1010000 /
b1010000 0
01
0#
#417
1#
#418
12
b1010001 &
b1010001 ,
b1010001 /
b1010001 0
11
0#
#419
1#
#420
14
13
02
b1010010 &
b1010010 ,
b1010010 /
b1010010 0
01
0#
#421
1#
#422
12
b1010011 &
b1010011 ,
b1010011 /
b1010011 0
11
0#
#423
1#
#424
16
15
04
03
02
b1010100 &
b1010100 ,
b1010100 /
b1010100 0
01
0#
#425
1#
#426
12
b1010101 &
b1010101 ,
b1010101 /
b1010101 0
11
0#
#427
1#
#428
14
13
02
b1010110 &
b1010110 ,
b1010110 /
b1010110 0
01
0#
#429
1#
#430
12
b1010111 &
b1010111 ,
b1010111 /
b1010111 0
11
0#
#431
1#
#432
18
17
06
05
04
03
02
b1011000 &
b1011000 ,
b1011000 /
b1011000 0
01
0#
#433
1#
#434
12
b1011001 &
b1011001 ,
b1011001 /
b1011001 0
11
0#
#435
1#
#436
14
13
02
b1011010 &
b1011010 ,
b1011010 /
b1011010 0
01
0#
#437
1#
#438
12
b1011011 &
b1011011 ,
b1011011 /
b1011011 0
11
0#
#439
1#
#440
16
15
04
03
02
b1011100 &
b1011100 ,
b1011100 /
b1011100 0
01
0#
#441
1#
#442
12
b1011101 &
b1011101 ,
b1011101 /
b1011101 0
11
0#
#443
1#
#444
14
13
02
b1011110 &
b1011110 ,
b1011110 /
b1011110 0
01
0#
#445
1#
#446
12
b1011111 &
b1011111 ,
b1011111 /
b1011111 0
11
0#
#447
1#
#448
1<
1;
0:
09
08
07
06
05
04
03
02
b1100000 &
b1100000 ,
b1100000 /
b1100000 0
01
0#
#449
1#
#450
12
b1100001 &
b1100001 ,
b1100001 /
b1100001 0
11
0#
#451
1#
#452
14
13
02
b1100010 &
b1100010 ,
b1100010 /
b1100010 0
01
0#
#453
1#
#454
12
b1100011 &
b1100011 ,
b1100011 /
b1100011 0
11
0#
#455
1#
#456
16
15
04
03
02
b1100100 &
b1100100 ,
b1100100 /
b1100100 0
01
0#
#457
1#
#458
12
b1100101 &
b1100101 ,
b1100101 /
b1100101 0
11
0#
#459
1#
#460
14
13
02
b1100110 &
b1100110 ,
b1100110 /
b1100110 0
01
0#
#461
1#
#462
12
b1100111 &
b1100111 ,
b1100111 /
b1100111 0
11
0#
#463
1#
#464
18
17
06
05
04
03
02
b1101000 &
b1101000 ,
b1101000 /
b1101000 0
01
0#
#465
1#
#466
12
b1101001 &
b1101001 ,
b1101001 /
b1101001 0
11
0#
#467
1#
#468
14
13
02
b1101010 &
b1101010 ,
b1101010 /
b1101010 0
01
0#
#469
1#
#470
12
b1101011 &
b1101011 ,
b1101011 /
b1101011 0
11
0#
#471
1#
#472
16
15
04
03
02
b1101100 &
b1101100 ,
b1101100 /
b1101100 0
01
0#
#473
1#
#474
12
b1101101 &
b1101101 ,
b1101101 /
b1101101 0
11
0#
#475
1#
#476
14
13
02
b1101110 &
b1101110 ,
b1101110 /
b1101110 0
01
0#
#477
1#
#478
12
b1101111 &
b1101111 ,
b1101111 /
b1101111 0
11
0#
#479
1#
#480
1:
19
08
07
06
05
04
03
02
b1110000 &
b1110000 ,
b1110000 /
b1110000 0
01
0#
#481
1#
#482
12
b1110001 &
b1110001 ,
b1110001 /
b1110001 0
11
0#
#483
1#
#484
14
13
02
b1110010 &
b1110010 ,
b1110010 /
b1110010 0
01
0#
#485
1#
#486
12
b1110011 &
b1110011 ,
b1110011 /
b1110011 0
11
0#
#487
1#
#488
16
15
04
03
02
b1110100 &
b1110100 ,
b1110100 /
b1110100 0
01
0#
#489
1#
#490
12
b1110101 &
b1110101 ,
b1110101 /
b1110101 0
11
0#
#491
1#
#492
14
13
02
b1110110 &
b1110110 ,
b1110110 /
b1110110 0
01
0#
#493
1#
#494
12
b1110111 &
b1110111 ,
b1110111 /
b1110111 0
11
0#
#495
1#
#496
18
17
06
05
04
03
02
b1111000 &
b1111000 ,
b1111000 /
b1111000 0
01
0#
#497
1#
#498
12
b1111001 &
b1111001 ,
b1111001 /
b1111001 0
11
0#
#499
1#
#500
14
13
02
b1111010 &
b1111010 ,
b1111010 /
b1111010 0
01
0#
#501
1#
#502
12
b1111011 &
b1111011 ,
b1111011 /
b1111011 0
11
0#
#503
1#
#504
16
15
04
03
02
b1111100 &
b1111100 ,
b1111100 /
b1111100 0
01
0#
#505
1#
#506
12
b1111101 &
b1111101 ,
b1111101 /
b1111101 0
11
0#
#507
1#
#508
14
13
02
b1111110 &
b1111110 ,
b1111110 /
b1111110 0
01
0#
#509
1#
#510
12
b1111111 &
b1111111 ,
b1111111 /
b1111111 0
11
0#
#511
1#
#512
1-
b0 (
b0 *
b0 +
b0 .
1"
1'
0=
0<
0;
0:
09
08
07
06
05
04
03
02
b0 &
b0 ,
b0 /
b0 0
01
0#
#513
1#
#514
0-
0"
0'
12
b1 &
b1 ,
b1 /
b1 0
11
0#
#515
1#
#516
0-
14
13
02
b10 &
b10 ,
b10 /
b10 0
01
0#
#517
1#
#518
12
b11 &
b11 ,
b11 /
b11 0
11
0#
#519
1#
#520
0-
16
15
04
03
02
b100 &
b100 ,
b100 /
b100 0
01
0#
#521
1#
#522
12
b101 &
b101 ,
b101 /
b101 0
11
0#
#523
1#
#524
14
13
02
b110 &
b110 ,
b110 /
b110 0
01
0#
#525
1#
#526
12
b111 &
b111 ,
b111 /
b111 0
11
0#
#527
1#
#528
0-
18
17
06
05
04
03
02
b1000 &
b1000 ,
b1000 /
b1000 0
01
0#
#529
1#
#530
12
b1001 &
b1001 ,
b1001 /
b1001 0
11
0#
#531
1#
#532
14
13
02
b1010 &
b1010 ,
b1010 /
b1010 0
01
0#
#533
1#
#534
12
b1011 &
b1011 ,
b1011 /
b1011 0
11
0#
#535
1#
#536
16
15
04
03
02
b1100 &
b1100 ,
b1100 /
b1100 0
01
0#
#537
1#
#538
12
b1101 &
b1101 ,
b1101 /
b1101 0
11
0#
#539
1#
#540
14
13
02
b1110 &
b1110 ,
b1110 /
b1110 0
01
0#
#541
1#
#542
12
b1111 &
b1111 ,
b1111 /
b1111 0
11
0#
#543
1#
#544
0-
1:
19
08
07
06
05
04
03
02
b10000 &
b10000 ,
b10000 /
b10000 0
01
0#
#545
1#
#546
12
b10001 &
b10001 ,
b10001 /
b10001 0
11
0#
#547
1#
#548
14
13
02
b10010 &
b10010 ,
b10010 /
b10010 0
01
0#
#549
1#
#550
12
b10011 &
b10011 ,
b10011 /
b10011 0
11
0#
#551
1#
#552
16
15
04
03
02
b10100 &
b10100 ,
b10100 /
b10100 0
01
0#
#553
1#
#554
12
b10101 &
b10101 ,
b10101 /
b10101 0
11
0#
#555
1#
#556
14
13
02
b10110 &
b10110 ,
b10110 /
b10110 0
01
0#
#557
1#
#558
12
b10111 &
b10111 ,
b10111 /
b10111 0
11
0#
#559
1#
#560
18
17
06
05
04
03
02
b11000 &
b11000 ,
b11000 /
b11000 0
01
0#
#561
1#
#562
12
b11001 &
b11001 ,
b11001 /
b11001 0
11
0#
#563
1#
#564
14
13
02
b11010 &
b11010 ,
b11010 /
b11010 0
01
0#
#565
1#
#566
12
b11011 &
b11011 ,
b11011 /
b11011 0
11
0#
#567
1#
#568
16
15
04
03
02
b11100 &
b11100 ,
b11100 /
b11100 0
01
0#
#569
1#
#570
12
b11101 &
b11101 ,
b11101 /
b11101 0
11
0#
#571
1#
#572
14
13
02
b11110 &
b11110 ,
b11110 /
b11110 0
01
0#
#573
1#
#574
12
b11111 &
b11111 ,
b11111 /
b11111 0
11
0#
#575
1#
#576
0-
1<
1;
0:
09
08
07
06
05
04
03
02
b100000 &
b100000 ,
b100000 /
b100000 0
01
0#
b1111111 $
b1111111 %
b1111111 )
#577
1#
#578
12
b100001 &
b100001 ,
b100001 /
b100001 0
11
0#
#579
1#
#580
14
13
02
b100010 &
b100010 ,
b100010 /
b100010 0
01
0#
#581
1#
#582
12
b100011 &
b100011 ,
b100011 /
b100011 0
11
0#
#583
1#
#584
16
15
04
03
02
b100100 &
b100100 ,
b100100 /
b100100 0
01
0#
#585
1#
#586
12
b100101 &
b100101 ,
b100101 /
b100101 0
11
0#
#587
1#
#588
14
13
02
b100110 &
b100110 ,
b100110 /
b100110 0
01
0#
#589
1#
#590
12
b100111 &
b100111 ,
b100111 /
b100111 0
11
0#
#591
1#
#592
18
17
06
05
04
03
02
b101000 &
b101000 ,
b101000 /
b101000 0
01
0#
