build/PWM_waveform.vcd
$date
	Sun Sep 10 23:30:57 2023
$end
$version
	Icarus Verilog
$end
$timescale
	1s
$end
$scope module testbench $end
$var wire 1 ! PWM_OUT $end
$var wire 1 " E $end
$var reg 1 # CLK $end
$var reg 7 $ Switches [6:0] $end
$scope module UUT $end
$var wire 1 # CLK $end
$var wire 1 " E $end
$var wire 7 % SW [6:0] $end
$var wire 7 & TCR_internal [6:0] $end
$var wire 1 ! PWM_OUT $end
$var wire 1 ' E_internal $end
$var wire 7 ( CCR_internal [6:0] $end
$scope module CCR0 $end
$var wire 7 ) SW [6:0] $end
$var wire 1 ' E $end
$var reg 7 * CCR_OUT [6:0] $end
$upscope $end
$scope module PWM0 $end
$var wire 7 + CCR [6:0] $end
$var wire 1 # CLK $end
$var wire 7 , TCR [6:0] $end
$var wire 1 - R $end
$var wire 1 ' E $end
$var reg 1 ! PWM_OUT $end
$scope module R0 $end
$var wire 7 . CCR [6:0] $end
$var wire 1 - R $end
$var wire 7 / TCR [6:0] $end
$upscope $end
$upscope $end
$scope module TCR0 $end
$var wire 1 # CLK $end
$var wire 1 ' E $end
$var wire 7 0 TCR [6:0] $end
$scope module T0 $end
$var wire 1 # CLK $end
$var reg 1 1 T $end
$upscope $end
$scope module T1 $end
$var wire 1 2 CLK $end
$var reg 1 3 T $end
$upscope $end
$scope module T2 $end
$var wire 1 4 CLK $end
$var reg 1 5 T $end
$upscope $end
$scope module T3 $end
$var wire 1 6 CLK $end
$var reg 1 7 T $end
$upscope $end
$scope module T4 $end
$var wire 1 8 CLK $end
$var reg 1 9 T $end
$upscope $end
$scope module T5 $end
$var wire 1 : CLK $end
$var reg 1 ; T $end
$upscope $end
$scope module T6 $end
$var wire 1 < CLK $end
$var reg 1 = T $end
$upscope $end
$upscope $end
$upscope $end
$upscope $end
$enddefinitions $end
$comment Show the parameter values. $end
$dumpall
$end
#0
$dumpvars
1=
1<
1;
1:
19
18
17
16
15
14
13
12
11
b1111111 0
b1111111 /
b0 .
0-
b1111111 ,
b0 +
b0 *
b100 )
b0 (
0'
b1111111 &
b100 %
b100 $
0#
0"
0!
$end
#1
1#
#2
1-
1"
1'
0=
0<
0;
0:
09
08
07
06
05
04
03
02
b0 &
b0 ,
b0 /
b0 0
01
0#
#3
0-
b100 (
b100 *
b100 +
b100 .
1#
#4
0"
0'
12
b1 &
b1 ,
b1 /
b1 0
11
1!
0#
#5
1#
#6
0"
0'
14
13
02
b10 &
b10 ,
b10 /
b10 0
01
0#
b10001 $
b10001 %
b10001 )
#7
1#
#8
12
b11 &
b11 ,
b11 /
b11 0
11
0#
#9
1#
#10
1-
16
15
04
03
02
b100 &
b100 ,
b100 /
b100 0
01
0#
#11
1#
#12
0-
12
b101 &
b101 ,
b101 /
b101 0
11
0!
0#
#13
1#
#14
0-
14
13
02
b110 &
b110 ,
b110 /
b110 0
01
0#
#15
1#
#16
12
b111 &
b111 ,
b111 /
b111 0
11
0#
#17
1#
#18
0-
0"
0'
18
17
06
05
04
03
02
b1000 &
b1000 ,
b1000 /
b1000 0
01
0#
#19
1#
#20
12
b1001 &
b1001 ,
b1001 /
b1001 0
11
0#
#21
1#
#22
14
13
02
b1010 &
b1010 ,
b1010 /
b1010 0
01
0#
#23
1#
#24
12
b1011 &
b1011 ,
b1011 /
b1011 0
11
0#
#25
1#
#26
16
15
04
03
02
b1100 &
b1100 ,
b1100 /
b1100 0
01
0#
#27
1#
#28
12
b1101 &
b1101 ,
b1101 /
b1101 0
11
0#
#29
1#
#30
14
13
02
b1110 &
b1110 ,
b1110 /
b1110 0
01
0#
#31
1#
#32
12
b1111 &
b1111 ,
b1111 /
b1111 0
11
0#
#33
1#
#34
1:
19
08
07
06
05
04
03
02
b10000 &
b10000 ,
b10000 /
b10000 0
01
0#
#35
1#
#36
12
b10001 &
b10001 ,
b10001 /
b10001 0
11
0#
#37
1#
#38
14
13
02
b10010 &
b10010 ,
b10010 /
b10010 0
01
0#
#39
1#
#40
12
b10011 &
b10011 ,
b10011 /
b10011 0
11
0#
#41
1#
#42
16
15
04
03
02
b10100 &
b10100 ,
b10100 /
b10100 0
01
0#
#43
1#
#44
12
b10101 &
b10101 ,
b10101 /
b10101 0
11
0#
#45
1#
#46
14
13
02
b10110 &
b10110 ,
b10110 /
b10110 0
01
0#
#47
1#
#48
12
b10111 &
b10111 ,
b10111 /
b10111 0
11
0#
#49
1#
#50
18
17
06
05
04
03
02
b11000 &
b11000 ,
b11000 /
b11000 0
01
0#
#51
1#
#52
12
b11001 &
b11001 ,
b11001 /
b11001 0
11
0#
#53
1#
#54
14
13
02
b11010 &
b11010 ,
b11010 /
b11010 0
01
0#
#55
1#
#56
12
b11011 &
b11011 ,
b11011 /
b11011 0
11
0#
#57
1#
#58
16
15
04
03
02
b11100 &
b11100 ,
b11100 /
b11100 0
01
0#
#59
1#
#60
12
b11101 &
b11101 ,
b11101 /
b11101 0
11
0#
#61
1#
#62
14
13
02
b11110 &
b11110 ,
b11110 /
b11110 0
01
0#
#63
1#
#64
12
b11111 &
b11111 ,
b11111 /
b11111 0
11
0#
#65
1#
#66
0"
0'
1<
1;
0:
09
08
07
06
05
04
03
02
b100000 &
b100000 ,
b100000 /
b100000 0
01
0#
#67
1#
#68
12
b100001 &
b100001 ,
b100001 /
b100001 0
11
0#
#69
1#
#70
14
13
02
b100010 &
b100010 ,
b100010 /
b100010 0
01
0#
#71
1#
#72
12
b100011 &
b100011 ,
b100011 /
b100011 0
11
0#
#73
1#
#74
16
15
04
03
02
b100100 &
b100100 ,
b100100 /
b100100 0
01
0#
#75
1#
#76
12
b100101 &
b100101 ,
b100101 /
b100101 0
11
0#
#77
1#
#78
14
13
02
b100110 &
b100110 ,
b100110 /
b100110 0
01
0#
#79
1#
#80
12
b100111 &
b100111 ,
b100111 /
b100111 0
11
0#
#81
1#
#82
18
17
06
05
04
03
02
b101000 &
b101000 ,
b101000 /
b101000 0
01
0#
#83
1#
#84
12
b101001 &
b101001 ,
b101001 /
b101001 0
11
0#
#85
1#
#86
14
13
02
b101010 &
b101010 ,
b101010 /
b101010 0
01
0#
#87
1#
#88
12
b101011 &
b101011 ,
b101011 /
b101011 0
11
0#
#89
1#
#90
16
15
04
03
02
b101100 &
b101100 ,
b101100 /
b101100 0
01
0#
#91
1#
#92
12
b101101 &
b101101 ,
b101101 /
b101101 0
11
0#
#93
1#
#94
14
13
02
b101110 &
b101110 ,
b101110 /
b101110 0
01
0#
#95
1#
#96
12
b101111 &
b101111 ,
b101111 /
b101111 0
11
0#
#97
1#
#98
1:
19
08
07
06
05
04
03
02
b110000 &
b110000 ,
b110000 /
b110000 0
01
0#
#99
1#
#100
12
b110001 &
b110001 ,
b110001 /
b110001 0
11
0#
#101
1#
#102
14
13
02
b110010 &
b110010 ,
b110010 /
b110010 0
01
0#
#103
1#
#104
12
b110011 &
b110011 ,
b110011 /
b110011 0
11
0#
#105
1#
#106
16
15
04
03
02
b110100 &
b110100 ,
b110100 /
b110100 0
01
0#
#107
1#
#108
12
b110101 &
b110101 ,
b110101 /
b110101 0
11
0#
#109
1#
#110
14
13
02
b110110 &
b110110 ,
b110110 /
b110110 0
01
0#
#111
1#
#112
12
b110111 &
b110111 ,
b110111 /
b110111 0
11
0#
#113
1#
#114
18
17
06
05
04
03
02
b111000 &
b111000 ,
b111000 /
b111000 0
01
0#
#115
1#
#116
12
b111001 &
b111001 ,
b111001 /
b111001 0
11
0#
#117
1#
#118
14
13
02
b111010 &
b111010 ,
b111010 /
b111010 0
01
0#
#119
1#
#120
12
b111011 &
b111011 ,
b111011 /
b111011 0
11
0#
#121
1#
#122
16
15
04
03
02
b111100 &
b111100 ,
b111100 /
b111100 0
01
0#
#123
1#
#124
12
b111101 &
b111101 ,
b111101 /
b111101 0
11
0#
#125
1#
#126
14
13
02
b111110 &
b111110 ,
b111110 /
b111110 0
01
0#
#127
1#
#128
12
b111111 &
b111111 ,
b111111 /
b111111 0
11
0#
#129
1#
#130
0"
0'
1=
0<
0;
0:
09
08
07
06
05
04
03
02
b1000000 &
b1000000 ,
b1000000 /
b1000000 0
01
0#
#131
1#
#132
12
b1000001 &
b1000001 ,
b1000001 /
b1000001 0
11
0#
#133
1#
#134
14
13
02
b1000010 &
b1000010 ,
b1000010 /
b1000010 0
01
0#
#135
1#
#136
12
b1000011 &
b1000011 ,
b1000011 /
b1000011 0
11
0#
#137
1#
#138
16
15
04
03
02
b1000100 &
b1000100 ,
b1000100 /
b1000100 0
01
0#
#139
1#
#140
12
b1000101 &
b1000101 ,
b1000101 /
b1000101 0
11
0#
#141
1#
#142
14
13
02
b1000110 &
b1000110 ,
b1000110 /
b1000110 0
01
0#
#143
1#
#144
12
b1000111 &
b1000111 ,
b1000111 /
b1000111 0
11
0#
#145
1#
#146
18
17
06
05
04
03
02
b1001000 &
b1001000 ,
b1001000 /
b1001000 0
01
0#
#147
1#
#148
12
b1001001 &
b1001001 ,
b1001001 /
b1001001 0
11
0#
#149
1#
#150
14
13
02
b1001010 &
b1001010 ,
b1001010 /
b1001010 0
01
0#
#151
1#
#152
12
b1001011 &
b1001011 ,
b1001011 /
b1001011 0
11
0#
#153
1#
#154
16
15
04
03
02
b1001100 &
b1001100 ,
b1001100 /
b1001100 0
01
0#
#155
1#
#156
12
b1001101 &
b1001101 ,
b1001101 /
b1001101 0
11
0#
#157
1#
#158
14
13
02
b1001110 &
b1001110 ,
b1001110 /
b1001110 0
01
0#
#159
1#
#160
12
b1001111 &
b1001111 ,
b1001111 /
b1001111 0
11
0#
#161
1#
#162
1:
19
08
07
06
05
04
03
02
b1010000 &
b1010000 ,
b1010000 /
b1010000 0
01
0#
#163
1#
#164
12
b1010001 &
b1010001 ,
b1010001 /
b1010001 0
11
0#
#165
1#
#166
14
13
02
b1010010 &
b1010010 ,
b1010010 /
b1010010 0
01
0#
#167
1#
#168
12
b1010011 &
b1010011 ,
b1010011 /
b1010011 0
11
0#
#169
1#
#170
16
15
04
03
02
b1010100 &
b1010100 ,
b1010100 /
b1010100 0
01
0#
#171
1#
#172
12
b1010101 &
b1010101 ,
b1010101 /
b1010101 0
11
0#
#173
1#
#174
14
13
02
b1010110 &
b1010110 ,
b1010110 /
b1010110 0
01
0#
#175
1#
#176
12
b1010111 &
b1010111 ,
b1010111 /
b1010111 0
11
0#
#177
1#
#178
18
17
06
05
04
03
02
b1011000 &
b1011000 ,
b1011000 /
b1011000 0
01
0#
#179
1#
#180
12
b1011001 &
b1011001 ,
b1011001 /
b1011001 0
11
0#
#181
1#
#182
14
13
02
b1011010 &
b1011010 ,
b1011010 /
b1011010 0
01
0#
#183
1#
#184
12
b1011011 &
b1011011 ,
b1011011 /
b1011011 0
11
0#
#185
1#
#186
16
15
04
03
02
b1011100 &
b1011100 ,
b1011100 /
b1011100 0
01
0#
#187
1#
#188
12
b1011101 &
b1011101 ,
b1011101 /
b1011101 0
11
0#
#189
1#
#190
14
13
02
b1011110 &
b1011110 ,
b1011110 /
b1011110 0
01
0#
#191
1#
#192
12
b1011111 &
b1011111 ,
b1011111 /
b1011111 0
11
0#
#193
1#
#194
1<
1;
0:
09
08
07
06
05
04
03
02
b1100000 &
b1100000 ,
b1100000 /
b1100000 0
01
0#
#195
1#
#196
12
b1100001 &
b1100001 ,
b1100001 /
b1100001 0
11
0#
#197
1#
#198
14
13
02
b1100010 &
b1100010 ,
b1100010 /
b1100010 0
01
0#
#199
1#
#200
12
b1100011 &
b1100011 ,
b1100011 /
b1100011 0
11
0#
#201
1#
#202
16
15
04
03
02
b1100100 &
b1100100 ,
b1100100 /
b1100100 0
01
0#
#203
1#
#204
12
b1100101 &
b1100101 ,
b1100101 /
b1100101 0
11
0#
#205
1#
#206
14
13
02
b1100110 &
b1100110 ,
b1100110 /
b1100110 0
01
0#
#207
1#
#208
12
b1100111 &
b1100111 ,
b1100111 /
b1100111 0
11
0#
#209
1#
#210
18
17
06
05
04
03
02
b1101000 &
b1101000 ,
b1101000 /
b1101000 0
01
0#
#211
1#
#212
12
b1101001 &
b1101001 ,
b1101001 /
b1101001 0
11
0#
#213
1#
#214
14
13
02
b1101010 &
b1101010 ,
b1101010 /
b1101010 0
01
0#
#215
1#
#216
12
b1101011 &
b1101011 ,
b1101011 /
b1101011 0
11
0#
#217
1#
#218
16
15
04
03
02
b1101100 &
b1101100 ,
b1101100 /
b1101100 0
01
0#
#219
1#
#220
12
b1101101 &
b1101101 ,
b1101101 /
b1101101 0
11
0#
#221
1#
#222
14
13
02
b1101110 &
b1101110 ,
b1101110 /
b1101110 0
01
0#
#223
1#
#224
12
b1101111 &
b1101111 ,
b1101111 /
b1101111 0
11
0#
#225
1#
#226
1:
19
08
07
06
05
04
03
02
b1110000 &
b1110000 ,
b1110000 /
b1110000 0
01
0#
#227
1#
#228
12
b1110001 &
b1110001 ,
b1110001 /
b1110001 0
11
0#
#229
1#
#230
14
13
02
b1110010 &
b1110010 ,
b1110010 /
b1110010 0
01
0#
#231
1#
#232
12
b1110011 &
b1110011 ,
b1110011 /
b1110011 0
11
0#
#233
1#
#234
16
15
04
03
02
b1110100 &
b1110100 ,
b1110100 /
b1110100 0
01
0#
#235
1#
#236
12
b1110101 &
b1110101 ,
b1110101 /
b1110101 0
11
0#
#237
1#
#238
14
13
02
b1110110 &
b1110110 ,
b1110110 /
b1110110 0
01
0#
#239
1#
#240
12
b1110111 &
b1110111 ,
b1110111 /
b1110111 0
11
0#
#241
1#
#242
18
17
06
05
04
03
02
b1111000 &
b1111000 ,
b1111000 /
b1111000 0
01
0#
#243
1#
#244
12
b1111001 &
b1111001 ,
b1111001 /
b1111001 0
11
0#
#245
1#
#246
14
13
02
b1111010 &
b1111010 ,
b1111010 /
b1111010 0
01
0#
#247
1#
#248
12
b1111011 &
b1111011 ,
b1111011 /
b1111011 0
11
0#
#249
1#
#250
16
15
04
03
02
b1111100 &
b1111100 ,
b1111100 /
b1111100 0
01
0#
#251
1#
#252
12
b1111101 &
b1111101 ,
b1111101 /
b1111101 0
11
0#
#253
1#
#254
14
13
02
b1111110 &
b1111110 ,
b1111110 /
b1111110 0
01
0#
#255
1#
#256
12
b1111111 &
b1111111 ,
b1111111 /
b1111111 0
11
0#
#257
1#
#258
1"
1'
0=
0<
0;
0:
09
08
07
06
05
04
03
02
b0 &
b0 ,
b0 /
b0 0
01
0#
#259
b10001 (
b10001 *
b10001 +
b10001 .
1#
#260
0"
0'
12
b1 &
b1 ,
b1 /
b1 0
11
1!
0#
#261
1#
#262
0"
0'
14
13
02
b10 &
b10 ,
b10 /
b10 0
01
0#
#263
1#
#264
12
b11 &
b11 ,
b11 /
b11 0
11
0#
#265
1#
#266
16
15
04
03
02
b100 &
b100 ,
b100 /
b100 0
01
0#
#267
1#
#268
12
b101 &
b101 ,
b101 /
b101 0
11
0#
#269
1#
#270
14
13
02
b110 &
b110 ,
b110 /
b110 0
01
0#
#271
1#
#272
12
b111 &
b111 ,
b111 /
b111 0
11
0#
#273
1#
#274
0"
0'
18
17
06
05
04
03
02
b1000 &
b1000 ,
b1000 /
b1000 0
01
0#
#275
1#
#276
12
b1001 &
b1001 ,
b1001 /
b1001 0
11
0#
#277
1#
#278
14
13
02
b1010 &
b1010 ,
b1010 /
b1010 0
01
0#
#279
1#
#280
12
b1011 &
b1011 ,
b1011 /
b1011 0
11
0#
#281
1#
#282
16
15
04
03
02
b1100 &
b1100 ,
b1100 /
b1100 0
01
0#
#283
1#
#284
12
b1101 &
b1101 ,
b1101 /
b1101 0
11
0#
#285
1#
#286
14
13
02
b1110 &
b1110 ,
b1110 /
b1110 0
01
0#
#287
1#
#288
12
b1111 &
b1111 ,
b1111 /
b1111 0
11
0#
#289
1#
#290
1:
19
08
07
06
05
04
03
02
b10000 &
b10000 ,
b10000 /
b10000 0
01
0#
#291
1#
#292
1-
12
b10001 &
b10001 ,
b10001 /
b10001 0
11
0#
#293
1#
#294
0-
14
13
02
b10010 &
b10010 ,
b10010 /
b10010 0
01
0!
0#
#295
1#
#296
12
b10011 &
b10011 ,
b10011 /
b10011 0
11
0#
#297
1#
#298
16
15
04
03
02
b10100 &
b10100 ,
b10100 /
b10100 0
01
0#
#299
1#
#300
12
b10101 &
b10101 ,
b10101 /
b10101 0
11
0#
#301
1#
#302
14
13
02
b10110 &
b10110 ,
b10110 /
b10110 0
01
0#
#303
1#
#304
12
b10111 &
b10111 ,
b10111 /
b10111 0
11
0#
#305
1#
#306
18
17
06
05
04
03
02
b11000 &
b11000 ,
b11000 /
b11000 0
01
0#
